Customer,OrderNumber,ProductCode,Quantity,UnitPrice
55740,88977,GC1040,2,100.50
55740,88988,56790,1,200.50
55740,88999,56791,5,300.50
55741,88977,56789,2,100.50
55742,88667,GC3020,2,100.50
55740,88990,SL9040,5,100.50