34.0 APEX_CODE,FINEST;APEX_PROFILING,INFO;CALLOUT,INFO;DB,INFO;SYSTEM,DEBUG;VALIDATION,INFO;VISUALFORCE,INFO;WORKFLOW,INFO
21:31:47.0 (314783)|USER_INFO|[EXTERNAL]|00541000002G5Qp|emoran@kaptestdemo.com|Pacific Standard Time|GMT-08:00
21:31:47.0 (344512)|EXECUTION_STARTED
21:31:47.0 (349715)|CODE_UNIT_STARTED|[EXTERNAL]|066410000067BbX|VF: /apex/orderCreator
21:31:47.0 (857112)|VF_DESERIALIZE_VIEWSTATE_BEGIN|066410000067BbX
21:31:47.0 (5885935)|HEAP_ALLOCATE|[72]|Bytes:3
21:31:47.0 (5934582)|HEAP_ALLOCATE|[77]|Bytes:152
21:31:47.0 (5952624)|HEAP_ALLOCATE|[342]|Bytes:408
21:31:47.0 (5972203)|HEAP_ALLOCATE|[355]|Bytes:408
21:31:47.0 (5990897)|HEAP_ALLOCATE|[467]|Bytes:48
21:31:47.0 (6023382)|HEAP_ALLOCATE|[139]|Bytes:6
21:31:47.0 (8218624)|VF_DESERIALIZE_VIEWSTATE_END
21:31:47.9 (9281373)|SYSTEM_MODE_ENTER|true
21:31:47.9 (9350240)|HEAP_ALLOCATE|[EXTERNAL]|Bytes:38
21:31:47.9 (9357455)|HEAP_ALLOCATE|[EXTERNAL]|Bytes:7
21:31:47.9 (9366342)|SYSTEM_METHOD_ENTRY|[1]|PageMessagesComponentController.PageMessagesComponentController()
21:31:47.9 (9370649)|STATEMENT_EXECUTE|[1]
21:31:47.10 (10347462)|SYSTEM_MODE_ENTER|true
21:31:47.10 (10401765)|HEAP_ALLOCATE|[EXTERNAL]|Bytes:8
21:31:47.10 (10408268)|VARIABLE_SCOPE_BEGIN|[88]|this|ApexPage.PageMessagesComponentController|true|false
21:31:47.10 (10447699)|VARIABLE_ASSIGNMENT|[88]|this|{}|0x7914dca3
21:31:47.10 (10451194)|VARIABLE_SCOPE_BEGIN|[88]|escape|Boolean|false|false
21:31:47.10 (10456139)|VARIABLE_ASSIGNMENT|[88]|escape|null
21:31:47.0 (11604022)|SYSTEM_MODE_ENTER|true
21:31:47.0 (11661205)|HEAP_ALLOCATE|[EXTERNAL]|Bytes:164
21:31:47.0 (11668078)|HEAP_ALLOCATE|[EXTERNAL]|Bytes:13
21:31:47.0 (11670812)|HEAP_ALLOCATE|[EXTERNAL]|Bytes:2
21:31:47.0 (11693179)|METHOD_ENTRY|[1]|01p4100000FyE3J|OrderCreatorController.OrderCreatorController()
21:31:47.0 (11696864)|STATEMENT_EXECUTE|[1]
21:31:47.0 (11700642)|STATEMENT_EXECUTE|[1]
21:31:47.0 (11709103)|SYSTEM_MODE_ENTER|false
21:31:47.0 (11715477)|HEAP_ALLOCATE|[EXTERNAL]|Bytes:5
21:31:47.0 (11723556)|SYSTEM_MODE_EXIT|false
21:31:47.0 (11730306)|METHOD_EXIT|[1]|OrderCreatorController
21:31:47.0 (11734373)|HEAP_ALLOCATE|[EXTERNAL]|Bytes:4
21:31:47.0 (11740994)|HEAP_ALLOCATE|[EXTERNAL]|Bytes:20
21:31:47.0 (11935956)|VARIABLE_ASSIGNMENT|[EXTERNAL]|this.csvFileBody|"core.filemanager.FileBlobValue@5113ef2a"|0x5ec7197c
21:31:47.0 (12000947)|SYSTEM_MODE_ENTER|true
21:31:47.0 (12207309)|EXCEPTION_THROWN|[EXTERNAL]|System.TypeException: Invalid conversion from runtime type String to List<String>
21:31:47.68 (68288874)|CUMULATIVE_LIMIT_USAGE
21:31:47.68 (68288874)|LIMIT_USAGE_FOR_NS|(default)|
  Number of SOQL queries: 0 out of 100
  Number of query rows: 0 out of 50000
  Number of SOSL queries: 0 out of 20
  Number of DML statements: 0 out of 150
  Number of DML rows: 0 out of 10000
  Maximum CPU time: 0 out of 10000
  Maximum heap size: 0 out of 6000000
  Number of callouts: 0 out of 100
  Number of Email Invocations: 0 out of 10
  Number of future calls: 0 out of 50
  Number of queueable jobs added to the queue: 0 out of 50
  Number of Mobile Apex push calls: 0 out of 10

21:31:47.68 (68288874)|CUMULATIVE_LIMIT_USAGE_END

21:31:47.0 (68333525)|CODE_UNIT_FINISHED|VF: /apex/orderCreator
21:31:47.0 (69682669)|EXECUTION_FINISHED
