{
    "constructors": [],
    "externalReferences": [],
    "id": "01p4100000Gn28IAAR",
    "innerClasses": [],
    "interfaces": [],
    "key": "01p4100000Gn28IAAR",
    "methods": [
        {
            "annotations": [],
            "location": {
                "column": 29,
                "line": 8
            },
            "modifiers": [
                "public"
            ],
            "name": "getCustomerList",
            "parameters": [
                {
                    "name": "accountNumbers",
                    "type": "Set"
                }
            ],
            "references": [],
            "returnType": "Map",
            "type": null
        },
        {
            "annotations": [],
            "location": {
                "column": 30,
                "line": 21
            },
            "modifiers": [
                "public"
            ],
            "name": "getProductList",
            "parameters": [
                {
                    "name": "productCodes",
                    "type": "Set"
                }
            ],
            "references": [],
            "returnType": "Map",
            "type": null
        },
        {
            "annotations": [],
            "location": {
                "column": 36,
                "line": 35
            },
            "modifiers": [
                "public"
            ],
            "name": "getPriceBookEntry",
            "parameters": [
                {
                    "name": "productIds",
                    "type": "Set"
                }
            ],
            "references": [],
            "returnType": "Map",
            "type": null
        },
        {
            "annotations": [],
            "location": {
                "column": 27,
                "line": 45
            },
            "modifiers": [
                "public"
            ],
            "name": "getCreatedOrders",
            "parameters": [
                {
                    "name": "ordersId",
                    "type": "Set"
                }
            ],
            "references": [],
            "returnType": "Map",
            "type": null
        },
        {
            "annotations": [],
            "location": {
                "column": 20,
                "line": 54
            },
            "modifiers": [
                "public"
            ],
            "name": "getActivePriceBook",
            "parameters": [],
            "references": [],
            "returnType": "Pricebook2",
            "type": null
        }
    ],
    "name": "FacadeController",
    "namespace": null,
    "parentClass": "",
    "properties": [],
    "tableDeclaration": {
        "annotations": [],
        "location": {
            "column": 14,
            "line": 1
        },
        "modifiers": [
            "public"
        ],
        "name": "FacadeController",
        "references": [],
        "type": "FacadeController"
    },
    "variables": [
        {
            "annotations": [],
            "location": {
                "column": 57,
                "line": 8
            },
            "modifiers": [],
            "name": "accountNumbers",
            "references": [],
            "type": "Set"
        },
        {
            "annotations": [],
            "location": {
                "column": 23,
                "line": 9
            },
            "modifiers": [],
            "name": "accountInformation",
            "references": [],
            "type": "Map"
        },
        {
            "annotations": [],
            "location": {
                "column": 15,
                "line": 10
            },
            "modifiers": [],
            "name": "account",
            "references": [],
            "type": "Account"
        },
        {
            "annotations": [],
            "location": {
                "column": 57,
                "line": 21
            },
            "modifiers": [],
            "name": "productCodes",
            "references": [],
            "type": "Set"
        },
        {
            "annotations": [],
            "location": {
                "column": 24,
                "line": 22
            },
            "modifiers": [],
            "name": "productMap",
            "references": [],
            "type": "Map"
        },
        {
            "annotations": [],
            "location": {
                "column": 16,
                "line": 23
            },
            "modifiers": [],
            "name": "product",
            "references": [],
            "type": "Product2"
        },
        {
            "annotations": [],
            "location": {
                "column": 62,
                "line": 35
            },
            "modifiers": [],
            "name": "productIds",
            "references": [],
            "type": "Set"
        },
        {
            "annotations": [],
            "location": {
                "column": 30,
                "line": 36
            },
            "modifiers": [],
            "name": "mapPBE",
            "references": [],
            "type": "Map"
        },
        {
            "annotations": [],
            "location": {
                "column": 22,
                "line": 38
            },
            "modifiers": [],
            "name": "pbe",
            "references": [],
            "type": "PricebookEntry"
        },
        {
            "annotations": [],
            "location": {
                "column": 56,
                "line": 45
            },
            "modifiers": [],
            "name": "ordersId",
            "references": [],
            "type": "Set"
        },
        {
            "annotations": [],
            "location": {
                "column": 21,
                "line": 46
            },
            "modifiers": [],
            "name": "mapOrders",
            "references": [],
            "type": "Map"
        },
        {
            "annotations": [],
            "location": {
                "column": 13,
                "line": 47
            },
            "modifiers": [],
            "name": "order",
            "references": [],
            "type": "Order"
        },
        {
            "annotations": [],
            "location": {
                "column": 14,
                "line": 55
            },
            "modifiers": [],
            "name": "priceBook",
            "references": [],
            "type": "Pricebook2"
        }
    ]
}